{
  "total": "15961",
  "page": 1,
  "pages": 799,
  "tv_shows": [
    {
      "id": 35624,
      "name": "The Flash",
      "permalink": "the-flash",
      "start_date": "2014-10-07",
      "end_date": null,
      "country": "US",
      "network": "The CW",
      "status": "Running",
      "image_thumbnail_path": "https://static.episodate.com/images/tv-show/thumbnail/35624.jpg"
    },
    {
      "id": 23455,
      "name": "Game of Thrones",
      "permalink": "game-of-thrones",
      "start_date": "2011-04-17",
      "end_date": null,
      "country": "US",
      "network": "HBO",
      "status": "Ended",
      "image_thumbnail_path": "https://static.episodate.com/images/tv-show/thumbnail/23455.jpg"
    },
    {
      "id": 24010,
      "name": "The Walking Dead",
      "permalink": "the-walking-dead",
      "start_date": "2010-10-31",
      "end_date": null,
      "country": "US",
      "network": "AMC",
      "status": "Running",
      "image_thumbnail_path": "https://static.episodate.com/images/tv-show/thumbnail/24010.jpg"
    }
  ]
}
